*** Life<FredkinCell> 5x5 ***

Generation = 0, Population = 5.
----0
----0
--0--
0----
0----

Generation = 1, Population = 14.
---01
--001
00-00
100--
10---

*** Life<FredkinCell> 3x10 ***

Generation = 0, Population = 10.
0----00-0-
---0---0--
00---0---0

Generation = 1, Population = 19.
-0-00110-0
-00-0----0
11000-000-

*** Life<FredkinCell> 7x9 ***

Generation = 0, Population = 6.
-000-----
-------0-
---------
---------
--------0
-------0-
---------

Generation = 1, Population = 14.
01-10--0-
-000--0-0
-------0-
--------0
---------
------0--
-------0-

*** Life<FredkinCell> 6x9 ***

Generation = 0, Population = 3.
---------
--0------
---------
-0-0-----
---------
---------

Generation = 1, Population = 10.
--0------
-0-0-----
-000-----
0---0----
-0-0-----
---------

*** Life<FredkinCell> 8x1 ***

Generation = 0, Population = 2.
-
-
-
-
0
-
-
0

Generation = 1, Population = 3.
-
-
-
0
-
0
0
-

*** Life<FredkinCell> 4x10 ***

Generation = 0, Population = 5.
--0--0-0--
---------0
----------
--------0-

Generation = 1, Population = 13.
-0-00---00
--0--0-00-
--------00
-------0-0

*** Life<FredkinCell> 5x6 ***

Generation = 0, Population = 10.
-0---0
--0-00
------
---0--
-0-000

Generation = 1, Population = 13.
0----1
----1-
--0000
-001-0
0----1

*** Life<FredkinCell> 10x1 ***

Generation = 0, Population = 3.
-
-
-
-
0
0
-
-
-
0

Generation = 1, Population = 5.
-
-
-
0
1
1
0
-
0
-

*** Life<FredkinCell> 9x9 ***

Generation = 0, Population = 27.
-------0-
--0--0---
-0--0--00
---0---0-
0--0-0-0-
0-0--000-
---0-0---
-0-0--0--
-0--0--00

Generation = 4, Population = 39.
00--03-11
-0-----0-
11--1-1-2
-3----3--
--22----3
222302211
-1-----1-
--2--02-1
-2-1210-1

*** Life<FredkinCell> 6x8 ***

Generation = 0, Population = 7.
------0-
-----0--
--------
--0--0--
----0---
---0--0-

Generation = 1, Population = 11.
-------0
----0---
--0-----
-0-0--0-
--0---0-
--0--0-0

*** Life<FredkinCell> 5x3 ***

Generation = 0, Population = 4.
---
--0
0-0
-0-
---

Generation = 1, Population = 7.
--0
001
-01
---
-0-

*** Life<FredkinCell> 5x2 ***

Generation = 0, Population = 4.
-0
--
00
--
0-

Generation = 1, Population = 6.
0-
0-
11
-0
-0

*** Life<FredkinCell> 10x7 ***

Generation = 0, Population = 7.
-0-----
-------
-0-0---
-------
-------
----0-0
---0---
-------
0------
-------

Generation = 1, Population = 15.
0-0----
---0---
0---0--
-0-0---
----0-0
-------
--0---0
0--0---
-0-----
0------

*** Life<FredkinCell> 8x5 ***

Generation = 0, Population = 15.
-0---
---0-
-0-0-
--0--
-0--0
-00-0
-0-00
-0--0

Generation = 1, Population = 29.
0-00-
--010
0-010
-0--0
01001
0110-
0-011
010-1

Generation = 2, Population = 19.
-----
-01--
-0-21
0100-
--11-
12-10
--12-
---02
