*** Life<ConwayCell> 8x7 ***

Generation = 0, Population = 8.
..*....
......*
.......
.....*.
..*....
.*.....
.*...*.
....*..

Generation = 8, Population = 0.
.......
.......
.......
.......
.......
.......
.......
.......

Generation = 16, Population = 0.
.......
.......
.......
.......
.......
.......
.......
.......

Generation = 24, Population = 0.
.......
.......
.......
.......
.......
.......
.......
.......

*** Life<ConwayCell> 13x12 ***

Generation = 0, Population = 2.
............
............
.........*..
............
............
............
............
............
............
........*...
............
............
............

Generation = 7, Population = 0.
............
............
............
............
............
............
............
............
............
............
............
............
............

Generation = 14, Population = 0.
............
............
............
............
............
............
............
............
............
............
............
............
............

Generation = 21, Population = 0.
............
............
............
............
............
............
............
............
............
............
............
............
............

Generation = 28, Population = 0.
............
............
............
............
............
............
............
............
............
............
............
............
............

*** Life<ConwayCell> 37x17 ***

Generation = 0, Population = 2.
.................
.................
.....*...........
.................
.................
.................
.................
.................
.................
.................
.................
.................
....*............
.................
.................
.................
.................
.................
.................
.................
.................
.................
.................
.................
.................
.................
.................
.................
.................
.................
.................
.................
.................
.................
.................
.................
.................

Generation = 1, Population = 0.
.................
.................
.................
.................
.................
.................
.................
.................
.................
.................
.................
.................
.................
.................
.................
.................
.................
.................
.................
.................
.................
.................
.................
.................
.................
.................
.................
.................
.................
.................
.................
.................
.................
.................
.................
.................
.................

Generation = 2, Population = 0.
.................
.................
.................
.................
.................
.................
.................
.................
.................
.................
.................
.................
.................
.................
.................
.................
.................
.................
.................
.................
.................
.................
.................
.................
.................
.................
.................
.................
.................
.................
.................
.................
.................
.................
.................
.................
.................

Generation = 3, Population = 0.
.................
.................
.................
.................
.................
.................
.................
.................
.................
.................
.................
.................
.................
.................
.................
.................
.................
.................
.................
.................
.................
.................
.................
.................
.................
.................
.................
.................
.................
.................
.................
.................
.................
.................
.................
.................
.................

Generation = 4, Population = 0.
.................
.................
.................
.................
.................
.................
.................
.................
.................
.................
.................
.................
.................
.................
.................
.................
.................
.................
.................
.................
.................
.................
.................
.................
.................
.................
.................
.................
.................
.................
.................
.................
.................
.................
.................
.................
.................

*** Life<ConwayCell> 27x16 ***

Generation = 0, Population = 3.
................
................
................
................
................
................
................
................
................
................
................
................
................
................
................
.......*.*......
....*...........
................
................
................
................
................
................
................
................
................
................

Generation = 9, Population = 0.
................
................
................
................
................
................
................
................
................
................
................
................
................
................
................
................
................
................
................
................
................
................
................
................
................
................
................

Generation = 18, Population = 0.
................
................
................
................
................
................
................
................
................
................
................
................
................
................
................
................
................
................
................
................
................
................
................
................
................
................
................

Generation = 27, Population = 0.
................
................
................
................
................
................
................
................
................
................
................
................
................
................
................
................
................
................
................
................
................
................
................
................
................
................
................

*** Life<ConwayCell> 35x27 ***

Generation = 0, Population = 7.
...........................
...........................
...........................
*..........................
...........................
.............*.............
...........................
...........................
.............*.......*.....
...........................
...........................
...........................
...........................
...........................
...........................
.........................*.
...........................
...........................
...........................
...*.......................
...........................
...........................
...........................
...........................
...........................
...........................
...........................
.....................*.....
...........................
...........................
...........................
...........................
...........................
...........................
...........................

Generation = 4, Population = 0.
...........................
...........................
...........................
...........................
...........................
...........................
...........................
...........................
...........................
...........................
...........................
...........................
...........................
...........................
...........................
...........................
...........................
...........................
...........................
...........................
...........................
...........................
...........................
...........................
...........................
...........................
...........................
...........................
...........................
...........................
...........................
...........................
...........................
...........................
...........................

Generation = 8, Population = 0.
...........................
...........................
...........................
...........................
...........................
...........................
...........................
...........................
...........................
...........................
...........................
...........................
...........................
...........................
...........................
...........................
...........................
...........................
...........................
...........................
...........................
...........................
...........................
...........................
...........................
...........................
...........................
...........................
...........................
...........................
...........................
...........................
...........................
...........................
...........................

Generation = 12, Population = 0.
...........................
...........................
...........................
...........................
...........................
...........................
...........................
...........................
...........................
...........................
...........................
...........................
...........................
...........................
...........................
...........................
...........................
...........................
...........................
...........................
...........................
...........................
...........................
...........................
...........................
...........................
...........................
...........................
...........................
...........................
...........................
...........................
...........................
...........................
...........................

Generation = 16, Population = 0.
...........................
...........................
...........................
...........................
...........................
...........................
...........................
...........................
...........................
...........................
...........................
...........................
...........................
...........................
...........................
...........................
...........................
...........................
...........................
...........................
...........................
...........................
...........................
...........................
...........................
...........................
...........................
...........................
...........................
...........................
...........................
...........................
...........................
...........................
...........................

Generation = 20, Population = 0.
...........................
...........................
...........................
...........................
...........................
...........................
...........................
...........................
...........................
...........................
...........................
...........................
...........................
...........................
...........................
...........................
...........................
...........................
...........................
...........................
...........................
...........................
...........................
...........................
...........................
...........................
...........................
...........................
...........................
...........................
...........................
...........................
...........................
...........................
...........................

*** Life<ConwayCell> 35x1 ***

Generation = 0, Population = 13.
*
.
.
.
.
.
*
.
.
.
*
.
*
*
*
*
.
.
.
.
.
*
.
*
*
*
.
*
.
*
.
.
.
.
.

Generation = 6, Population = 0.
.
.
.
.
.
.
.
.
.
.
.
.
.
.
.
.
.
.
.
.
.
.
.
.
.
.
.
.
.
.
.
.
.
.
.

*** Life<ConwayCell> 4x6 ***

Generation = 0, Population = 6.
.**...
...*..
...**.
.....*

Generation = 2, Population = 6.
...*..
..*.*.
.....*
...**.

Generation = 4, Population = 6.
...**.
...**.
...*.*
......

Generation = 6, Population = 3.
...**.
..*...
......
......

Generation = 8, Population = 0.
......
......
......
......

Generation = 10, Population = 0.
......
......
......
......

Generation = 12, Population = 0.
......
......
......
......

*** Life<ConwayCell> 27x38 ***

Generation = 0, Population = 5.
......................................
......................................
......................................
......................................
..................*...................
......................................
......................................
......................................
...............*......................
......................................
......................................
......................................
......................................
......................................
......................................
......................................
......................................
.............................*........
......................................
...........*..........................
......................................
......................................
............*.........................
......................................
......................................
......................................
......................................

Generation = 2, Population = 0.
......................................
......................................
......................................
......................................
......................................
......................................
......................................
......................................
......................................
......................................
......................................
......................................
......................................
......................................
......................................
......................................
......................................
......................................
......................................
......................................
......................................
......................................
......................................
......................................
......................................
......................................
......................................

Generation = 4, Population = 0.
......................................
......................................
......................................
......................................
......................................
......................................
......................................
......................................
......................................
......................................
......................................
......................................
......................................
......................................
......................................
......................................
......................................
......................................
......................................
......................................
......................................
......................................
......................................
......................................
......................................
......................................
......................................

Generation = 6, Population = 0.
......................................
......................................
......................................
......................................
......................................
......................................
......................................
......................................
......................................
......................................
......................................
......................................
......................................
......................................
......................................
......................................
......................................
......................................
......................................
......................................
......................................
......................................
......................................
......................................
......................................
......................................
......................................

Generation = 8, Population = 0.
......................................
......................................
......................................
......................................
......................................
......................................
......................................
......................................
......................................
......................................
......................................
......................................
......................................
......................................
......................................
......................................
......................................
......................................
......................................
......................................
......................................
......................................
......................................
......................................
......................................
......................................
......................................

*** Life<ConwayCell> 31x40 ***

Generation = 0, Population = 13.
........................................
........................................
...............................*........
..................*.....................
...........*............................
........................................
......................*.................
........................................
........................................
................*.*.............*.......
........................................
........................................
........................................
........................................
........................................
........................................
........................................
...................................*....
........................................
........................................
........................................
........................................
........................................
..............*.........................
......................*.................
........................................
........................................
...........*............................
...............*........................
........................................
............................*...........

Generation = 1, Population = 0.
........................................
........................................
........................................
........................................
........................................
........................................
........................................
........................................
........................................
........................................
........................................
........................................
........................................
........................................
........................................
........................................
........................................
........................................
........................................
........................................
........................................
........................................
........................................
........................................
........................................
........................................
........................................
........................................
........................................
........................................
........................................

*** Life<ConwayCell> 25x37 ***

Generation = 0, Population = 14.
.....................................
.....................................
.....................................
............*........................
...................................*.
.....................................
........*............................
...................*.................
........*........................*...
.....................................
.....................................
.......*..*..........................
.....*...............................
....................................*
...............................*.....
.....................................
.....................................
.....................................
.....................................
.....................................
.....................................
......*..............................
.....................................
.....................................
..............................*...*..

Generation = 1, Population = 0.
.....................................
.....................................
.....................................
.....................................
.....................................
.....................................
.....................................
.....................................
.....................................
.....................................
.....................................
.....................................
.....................................
.....................................
.....................................
.....................................
.....................................
.....................................
.....................................
.....................................
.....................................
.....................................
.....................................
.....................................
.....................................

Generation = 2, Population = 0.
.....................................
.....................................
.....................................
.....................................
.....................................
.....................................
.....................................
.....................................
.....................................
.....................................
.....................................
.....................................
.....................................
.....................................
.....................................
.....................................
.....................................
.....................................
.....................................
.....................................
.....................................
.....................................
.....................................
.....................................
.....................................

Generation = 3, Population = 0.
.....................................
.....................................
.....................................
.....................................
.....................................
.....................................
.....................................
.....................................
.....................................
.....................................
.....................................
.....................................
.....................................
.....................................
.....................................
.....................................
.....................................
.....................................
.....................................
.....................................
.....................................
.....................................
.....................................
.....................................
.....................................

Generation = 4, Population = 0.
.....................................
.....................................
.....................................
.....................................
.....................................
.....................................
.....................................
.....................................
.....................................
.....................................
.....................................
.....................................
.....................................
.....................................
.....................................
.....................................
.....................................
.....................................
.....................................
.....................................
.....................................
.....................................
.....................................
.....................................
.....................................

Generation = 5, Population = 0.
.....................................
.....................................
.....................................
.....................................
.....................................
.....................................
.....................................
.....................................
.....................................
.....................................
.....................................
.....................................
.....................................
.....................................
.....................................
.....................................
.....................................
.....................................
.....................................
.....................................
.....................................
.....................................
.....................................
.....................................
.....................................
