*** Life<FredkinCell> 4x9 ***

Generation = 0, Population = 11.
--0--00-0
-0-------
--000----
0----0-0-

Generation = 1, Population = 19.
---0011--
0-00000-0
0-1-1--0-
-000----0

Generation = 2, Population = 16.
0---12-00
1--1-1-0-
10--2---0
-111-----

Generation = 3, Population = 11.
10--2---1
--0--2-10
---0-----
---2----0

Generation = 4, Population = 14.
21-0----2
1------2-
---120-0-
--130--0-

Generation = 5, Population = 17.
-2--2----
2---0203-
1---31--0
-124--010

Generation = 6, Population = 18.
--003-10-
3--113-4-
2-1---001
-2-5--1--

Generation = 7, Population = 23.
2211-22-2
400-24---
30-13--12
--2-002-0

Generation = 8, Population = 16.
-3223-3--
5------4-
---241-2-
0--5--311

Generation = 9, Population = 15.
-4--4----
--0--4-50
--1--20--
-226--422

Generation = 10, Population = 18.
2--2---02
--11-5061
----4--2-
03370---3

Generation = 11, Population = 17.
-4-342---
502-26---
30-25--32
1----0---

Generation = 12, Population = 22.
-5245-3--
--3-3-061
4-13-2043
2--7--423

Generation = 13, Population = 19.
263---4-2
5---4617-
5---53--4
33-80--3-

Generation = 14, Population = 16.
--445-50-
--31-7281
----6--4-
-4-9--4--

Generation = 15, Population = 15.
-6-562---
-0---83-2
-013--05-
3----0---

*** Life<FredkinCell> 6x6 ***

Generation = 0, Population = 12.
0----0
00-0--
0-0--0
----0-
-----0
--0--0

Generation = 2, Population = 24.
2--1-0
221010
2-0000
10-1-1
0-10--
0-01--

Generation = 4, Population = 21.
40-31-
4--032
-00022
3-0-13
01-2--
----1-

Generation = 6, Population = 17.
-203--
-32232
322---
5---1-
0---1-
2----2

Generation = 8, Population = 17.
-2--12
-52---
34----
-1223-
-31---
4-011-

Generation = 10, Population = 18.
5-1-3-
574---
5--233
--4--4
-3-32-
4---33

Generation = 12, Population = 20.
--3334
---334
--3---
6243--
033-2-
--0135

Generation = 14, Population = 19.
645--4
6-----
-5-444
-4-545
--544-
--01-7

*** Life<FredkinCell> 5x4 ***

Generation = 0, Population = 7.
0-0-
00--
----
0-0-
---0

Generation = 1, Population = 7.
10-0
-1--
-00-
----
0---

Generation = 2, Population = 9.
2---
---0
0-10
000-
-0--

Generation = 3, Population = 7.
-0-0
---1
10--
-1--
-1--

Generation = 4, Population = 12.
2--1
0-02
2-10
--0-
020-

Generation = 5, Population = 8.
30-2
---3
3-2-
----
1--0

Generation = 6, Population = 9.
41-3
-1-4
----
--00
-20-

Generation = 7, Population = 9.
5--4
-2-5
-02-
---1
13--

Generation = 8, Population = 13.
--05
-306
3-30
0---
2400

Generation = 9, Population = 5.
----
-4-7
40--
----
---1

Generation = 10, Population = 10.
-1-5
-5--
5-30
01-1
--0-

Generation = 11, Population = 8.
52--
-6--
6-4-
-2-2
2---

Generation = 12, Population = 7.
6-0-
07--
----
0-0-
---1

Generation = 13, Population = 7.
72-5
-8--
-04-
----
2---

Generation = 14, Population = 9.
8---
---7
6-50
020-
-4--

Generation = 15, Population = 7.
-2-5
---8
70--
-3--
-5--

*** Life<FredkinCell> 3x7 ***

Generation = 0, Population = 8.
--0--0-
-0-0-0-
--0-00-

Generation = 2, Population = 8.
0--0---
-0---0-
0-01--1

Generation = 4, Population = 6.
00---20
-------
-1---0-

Generation = 6, Population = 4.
--1-1--
-------
1-----2

Generation = 8, Population = 0.
-------
-------
-------

*** Life<FredkinCell> 12x5 ***

Generation = 0, Population = 16.
--0--
---0-
---0-
-0---
-00-0
-----
-----
-----
00--0
0----
00---
0-0-0

Generation = 1, Population = 29.
-0---
---10
-0010
01-00
0-1--
-00-0
-----
00--0
-100-
-0--0
11--0
10---

Generation = 2, Population = 21.
0-000
-----
----1
-----
1-2--
-1---
0-0--
1----
-2-10
----1
-2001
--0-0

Generation = 3, Population = 30.
--1-1
0-01-
---1-
0-0-0
-0-0-
0-0--
10-0-
2-000
---2-
--00-
131-2
--101

Generation = 4, Population = 24.
0020-
-----
--02-
-1---
1----
1--0-
21-1-
301-1
0-0--
0----
2-2-3
1----

Generation = 5, Population = 30.
1--11
00---
--131
---0-
2--0-
--010
3-02-
41-0-
-2120
-0--1
-----
201-1

Generation = 6, Population = 25.
2-222
-1---
0-242
0----
-0---
-1--1
41-3-
-----
-3-3-
01--2
2-2--
3-2--

Generation = 7, Population = 27.
-03-3
0-0--
103-3
1-000
-12-0
--0--
5----
4----
-4---
-----
-3303
4-30-

Generation = 8, Population = 31.
-1---
1--1-
2-444
2-1-1
-2301
1-111
610--
5----
--1--
--002
-4414
-0---

Generation = 9, Population = 30.
--32-
2--2-
---5-
31---
23-12
2-22-
7---0
6----
042-0
--11-
2-52-
41-01

Generation = 10, Population = 29.
214-3
-1--0
-0464
--1-1
3-3-3
-13-1
-10--
--1--
---3-
--2--
34-3-
-23-2

Generation = 11, Population = 25.
325-4
--0--
2-5-5
3--0-
-3---
--4-2
7-130
--2--
--2-0
0--1-
4----
--40-

Generation = 12, Population = 29.
4----
---2-
3-66-
4----
---13
2-523
--2--
61---
0433-
11---
545--
42512

Generation = 13, Population = 28.
-2-2-
---30
4-7-5
511-1
-----
---3-
--3-0
--20-
1--40
2221-
6---4
-36-3

Generation = 14, Population = 31.
4--3-
21---
5086-
----2
33313
-----
-14--
61--1
2-351
3---2
74--5
-47-4

Generation = 15, Population = 24.
5-5-4
3----
-1-7-
---03
4----
2--33
--530
--2-2
-44-2
--2--
---3-
--8-5

*** Life<FredkinCell> 3x11 ***

Generation = 0, Population = 11.
-0-----0---
----00--00-
00-0-0---0-

Generation = 2, Population = 10.
1------0---
--00------1
-200---0-2-

Generation = 4, Population = 12.
-1-1-0-----
10--20--1-1
--2-1--0---

Generation = 6, Population = 12.
--011------
3------01--
23-0--10-2-

Generation = 8, Population = 12.
-----2-1-0-
5-1--00--01
---0--3-1--

Generation = 10, Population = 12.
------110--
--10------3
-4-03--0-21

Generation = 12, Population = 12.
-2-2-4-----
50--20--3-5
--3-5--0---

Generation = 14, Population = 12.
--123------
7------03--
34-0--50-3-

*** Life<FredkinCell> 4x3 ***

Generation = 0, Population = 6.
000
-0-
-0-
--0

Generation = 1, Population = 5.
111
---
01-
---

Generation = 2, Population = 8.
2-2
--0
120
00-

Generation = 3, Population = 2.
--3
---
-3-
---

Generation = 4, Population = 6.
-1-
-00
1-0
-0-

Generation = 5, Population = 3.
22-
---
--1
---

Generation = 6, Population = 8.
333
000
-3-
--0

Generation = 7, Population = 3.
-4-
---
-41
---

Generation = 8, Population = 8.
3-3
--0
152
-00

Generation = 9, Population = 4.
--4
---
263
---

Generation = 10, Population = 8.
-4-
00-
3-4
000

Generation = 11, Population = 3.
-54
---
--5
---

Generation = 12, Population = 6.
365
-0-
-6-
--0

Generation = 13, Population = 5.
476
---
37-
---

Generation = 14, Population = 8.
5-7
--0
485
00-

Generation = 15, Population = 2.
--8
---
-9-
---

*** Life<FredkinCell> 5x4 ***

Generation = 0, Population = 11.
0000
0---
0--0
-0-0
0-0-

Generation = 2, Population = 9.
----
0010
2-1-
10--
---0

Generation = 4, Population = 10.
1-1-
0-3-
--31
-2--
111-

Generation = 6, Population = 13.
3-32
-03-
3--3
1-12
333-

Generation = 8, Population = 7.
-1-4
--3-
5-4-
---2
-3--

Generation = 10, Population = 14.
4-44
2--1
--64
-412
4341

Generation = 12, Population = 11.
6164
4---
6--6
-4-4
6-6-

Generation = 14, Population = 9.
----
4151
8-7-
24--
---1

*** Life<FredkinCell> 10x12 ***

Generation = 0, Population = 14.
----0-------
0--00----0--
--0---------
------------
0-0------0--
------0-----
-------0--0-
------------
----------0-
------0-----

Generation = 1, Population = 34.
0---10---0--
-0-1-0--0-0-
00--0----0--
0--------0--
---0--0-0-0-
0-0--0---00-
--------00-0
-------0----
------0--0-0
-----0-0--0-

Generation = 2, Population = 31.
----2-0-----
01---100---0
--0------1--
1--00-0--1--
----0-----10
----0---0---
0-0--0--1-0-
------------
-------00-0-
----0-0-0---

Generation = 3, Population = 58.
00-0-01----0
12---211000-
----00-00200
-0-1---002-0
0----00-0-21
0-001--010-0
---0--002--0
0-0--0-0----
----0--1---0
---0---0100-

Generation = 4, Population = 41.
--------00--
--01-32211-0
0---1-01--1-
------------
1-0--11---32
1-112-0--10-
--01--1---01
------0-----
0-0---0--0--
--0---0---1-

Generation = 5, Population = 64.
--00-01---00
121204332-0-
-00--0------
--0-00-0---0
2-1--2-0---3
2-2230-01210
00---0-0---2
0--0-0-0-000
--10-0-10---
0010-010---0

Generation = 6, Population = 45.
0---2---00-1
23-3--4-3-1-
--1-1---0-10
1---11-10-01
3---0----0--
-0---1-1---1
11--------0-
1--1----01--
---1--021-0-
1-2-------1-

Generation = 7, Population = 59.
1----010-10-
-41-04---120
---02-0---2-
200122-2-2--
4--012------
212-----12--
--01-0-02---
2-020-0--20-
---2001--010
------101020

Generation = 8, Population = 40.
--0----1----
-523--433--1
0-1-3----23-
------0-----
-01-2-100---
---23----31-
--1-0-11-00-
------1-----
0---1-2--1--
---00----13-

Generation = 9, Population = 59.
--1----2---1
-6-4-4544---
-020-0-1-34-
20---21-020-
41203---1-3-
-12341-----1
-1-11--2---2
2-0--0----0-
-0--2-3212--
1-21-01-1-40

Generation = 10, Population = 57.
-----0-3--0-
27-5----5-21
-1-----2---0
-10---22-311
--31-210204-
-23--2011--2
-2---01-2--3
----0---0---
0-1-----2310
-03201-02151

Generation = 11, Population = 56.
10-02----11-
3---04-4----
---0---3-34-
2------30-2-
-142----31-3
2---43-22--3
13-----2-004
2002--10--0-
-02--0--342-
-14--2-1326-

Generation = 12, Population = 64.
-1-1---30221
4--5-5-55---
--2--00-04-0
--0---2---3-
42-3-2-04244
323-54---3--
2--110--211-
--130-2--2--
-13-21-2-530
1--203-243-1

Generation = 13, Population = 63.
---2201-1--2
---6-65-612-
013-3--3-54-
2-1--23--341
----3311-355
434--5022-13
3-1----23-24
2--41-----00
-2--3-3336--
---31-----62

Generation = 14, Population = 56.
--1--1--2---
47-7---5-2--
---0-00-065-
31212--304--
-2-34---4--6
---3--1--324
-32-10----35
3--5-02-----
--32--4--73-
-144-3124-73

Generation = 15, Population = 55.
1---2-1-----
58280----3--
----311---60
42-----4---1
-344-31-53-7
---45--2-435
-43-2-1-----
--161--0-2-0
0--331---8--
125--42-53-4

*** Life<FredkinCell> 5x11 ***

Generation = 0, Population = 8.
------0----
0---0-0----
-----------
0-------0--
-------0-0-

Generation = 2, Population = 12.
----1-2-0--
----0-2----
------10-0-
--0-0-----0
-----0-----

Generation = 4, Population = 18.
--0----0-10
------2-1-0
------12-0-
0-0-----0-0
---0-01--0-

Generation = 6, Population = 28.
0-0-203013-
0-1-1-4-1-2
--100-1-001
--0-0-----0
-0--0--10--

Generation = 8, Population = 14.
2------035-
--1-1-----4
------33-0-
-----------
-0---233---

Generation = 10, Population = 24.
--2--0-2370
2-1-1-5-2-4
00--2-55---
--1-0-----1
-0--2--52--

Generation = 12, Population = 22.
-141------0
--3-3-----6
0231--5-0-2
-----------
1-01-44-411

Generation = 14, Population = 24.
-3-3204---2
4-3-3-7-4-6
2-53----00-
--1-0-----1
--23--6--1-
