*** Life<Cell> 8x11 ***

Generation = 0, Population = 8.
----0-----0
-------0---
-----------
--------0--
-----------
-0----0----
-----------
--0-------0

Generation = 1, Population = 26.
---0-0-0-0-
----0-0-0-0
-------00--
-------0-0-
-0----0-0--
0-0--0-0---
-00---0---0
-0-0-----0-

Generation = 2, Population = 22.
--0-0-0-0--
-----0--10-
----0-----0
-0-----1--0
-----------
--100-----0
-----------
010-0-0-0--

Generation = 3, Population = 38.
-0---0--1--
--0-0--0-1-
-0-0---00-1
0-0-0-0-001
-0000--0---
-0*-10---0-
00-0--0-0-0
1-1------0-

Generation = 4, Population = 18.
0-----0----
-0-0--01---
----0-----*
--1-1------
----1-----0
-1.--1-0---
-----------
*1----0----

Generation = 5, Population = 33.
---0-01----
-----0-*1-0
-00-1000-0.
-0---0-----
-000*--0-0-
0-.-----0-0
0----000---
.*1--0-0---

Generation = 6, Population = 41.
--0---*-1-0
-000---.*1-
0-1-*---0-.
0-1011-----
----*-0-0--
1-*01100-0-
1-0-0-----0
.**001010--

Generation = 7, Population = 33.
--1--0.-*0-
-1-1--0.**-
10--.--01-.
1----*-----
---0.-10---
*-*---110--
*0---0--0--
.**-1---100

Generation = 8, Population = 29.
----0-.0*-0
-*0-0--...0
--10.0-1--.
*--01.--0--
----.------
*1*----*-0-
*-0-------0
***----1--1

Generation = 9, Population = 38.
-01010.1.-1
0*-11--***1
1---.-----.
.0--*.---0-
-000.--000-
*-*0--1.---
.--0------1
*.*0--0-10*

Generation = 10, Population = 44.
---1*1**.-*
-.0---0***-
*0-0*--11-*
*1--..-1-11
--1-*--1--0
.1.111-*000
.-0-0---0-*
..*-11--*-*

Generation = 11, Population = 38.
---**-...-.
0*-1---...1
*-11.0-*--*
*--0*.0-0**
00-0*-1--0-
.-.*-*-*1-1
.-10-0---0*
...--*01.-.

Generation = 12, Population = 46.
001**1...-.
-*0--0-...*
*0**.-0*--*
*--1..111.*
-1-1.0*-010
.1..1*1**-*
.0*------1*
...01*-*.0.

Generation = 13, Population = 36.
11***-...-.
0.11-1-....
*1.**--.-0*
*1--..**-.*
-*-*.-.-1-1
*-.**.*..-.
.-*---0---*
..*1-.-.*1*

Generation = 14, Population = 38.
--..*-...-.
-.-*--0....
.-.**-0.11*
.*1-*..*-.*
0*-**-*---*
.-.***.*.-.
.0*000100-*
..**1.0..-*

Generation = 15, Population = 36.
--...1...-.
-.1*111*.*.
.1..*-1.*-*
***-..**-.*
1*1..0*1-1.
*-......*-.
.1.--1*11-.
.*..-.1..1.

*** Life<Cell> 11x10 ***

Generation = 0, Population = 14.
0---0---00
----------
------0---
---00-----
--0-------
----------
-0-----0--
------0--0
----0--0--
----------
----------

Generation = 2, Population = 42.
----0-01*-
---01-----
0-0------0
-00--11---
01--1-00--
---00-0--0
--1000-0-1
----1--110
-00--100-1
------0--0
----0--0--

Generation = 4, Population = 36.
0----0*-.*
--------1-
01*-1--010
1----.1001
----.-**11
----------
-1.*-*1--1
--00.1-.--
1-*1-.--11
----------
-0--0-----

Generation = 6, Population = 46.
01-0--.-*.
0-1---10*1
01*-1---1-
.---*.---.
*-00.1..*-
0--1----11
1-.*-*.*11
10-*.*-.--
--.-1*11..
---1------
10--0-0-00

Generation = 8, Population = 47.
0*--*-.1**
--*-*1*0.*
0-*-.---.-
.101*.---.
*1-0*1...1
0----01-*1
--.*-....-
-*0..*0.-*
--.*.*-*..
1-11----1-
**-000----

Generation = 10, Population = 53.
**01*1.-..
00*1*1*-.*
0-.0.-11*1
.--***100*
.-*-.-*.**
----10*0.-
*-*.-...*1
-.-...-.-*
*-...**.**
.-.*0--01-
*.--0*1---

Generation = 12, Population = 47.
*.*..-.1..
***1**.0*.
*-.0.-.*..
.11.*.-*0.
.-*-.-.**.
--0*.-.-.1
.1*.-....1
1***..*.-*
.*.**.....
.0..01-*-1
..-00*.0-1

Generation = 14, Population = 41.
.*..*-*.*.
*......-*.
*-.*.-**..
**1...-.-.
.1*0.-**..
10*..-.*.*
.1.*0..**-
........-*
.....*.***
.-*.*-1*-*
..1-**.--.

*** Life<Cell> 9x8 ***

Generation = 0, Population = 10.
-----0--
----0---
----00--
--------
0-0----0
----0---
--------
---0----
-------0

Generation = 1, Population = 27.
------0-
---010--
---0-10-
0-0-00-0
---00-0-
0-00-0-0
---00---
--0-0--0
---0--0-

Generation = 2, Population = 20.
---00--0
--0---0-
0--1-*1-
--------
--0----0
--11--0-
0-0-----
-0--10--
-----0--

Generation = 3, Population = 36.
---110--
00-01-1-
-0---*-0
0-00-000
-01-----
00**00--
-01-000-
---0*-0-
-0---10-

Generation = 4, Population = 28.
000-*1--
1-------
01---.-1
---1----
0-*00-00
1-..1---
----11-0
---1.--0
0-00-*-0

Generation = 5, Population = 31.
--1-.*0-
-00-10-0
-*01-.1-
-0-*--0-
1-*1--11
*0..--0-
0----*-1
0--*.-0-
--1--.-1

Generation = 6, Population = 33.
--*1**1-
1-10*---
0.1--.*-
-1-.00--
*-.-00**
*1*.--10
---01*--
10-..--0
00---.--

Generation = 7, Population = 34.
00**.**0
*-*1.---
1.*--..1
0--*--00
*0*1-1.*
*-*.-0--
---1-*--
--0.*00-
--1--.-1

Generation = 8, Population = 39.
--.**.*1
*0.-*01-
-.*1-.**
--0*0-11
*-.--*.*
*1..1-10
0-1-1.--
-01.*11-
-0*00*--

Generation = 9, Population = 36.
00.**.**
.1.1.-*0
1..-0...
01-.10-*
*-*10...
**.**0*-
1-*--.-1
--*..**0
0-.-1.--

Generation = 10, Population = 37.
1-.*****
.*.*.0*-
*.*-1..*
1*-.*1-.
.-.*1...
*....-*-
*0*-1.0*
-0.*.**-
-0.0-*01

Generation = 11, Population = 35.
--**...*
**...-.0
*.*1*...
-*-..*1.
*0.*-...
*.*.*0*-
*1*1-.1*
--.*...0
01.1-*1*

Generation = 12, Population = 26.
1-*.....
*...*-.1
*.*-***.
1.-..**.
*-.*-...
....*-*-
*-.--.-*
--.*.*.-
1***-.-*

Generation = 13, Population = 26.
*-......
*...*-*-
*..-*..*
-.0*..*.
.0..-.*.
.....-.-
.1.11*-.
-0.**.*-
****1.1.

Generation = 14, Population = 26.
.0......
**...-.-
.*.-*.**
1*1*.***
.-*.-...
..*.*0.-
.*.-**-.
--....*0
**..-.*.

Generation = 15, Population = 25.
*1......
***..-.1
...-*..*
*.****.*
.-..1...
.**.*-.-
...1*.-.
1-....*1
....-.**

*** Life<Cell> 4x9 ***

Generation = 0, Population = 10.
----0-0--
-0--0--0-
0--0-0---
--0-----0

Generation = 2, Population = 22.
0-01-0--0
---0-00-1
00001011-
110---01-

Generation = 4, Population = 19.
--*1-*---
0-10**--*
0***-*11-
1*-----1-

Generation = 6, Population = 23.
-1*-**1--
*1*0..0-.
*.****110
1.0-01-.1

Generation = 8, Population = 21.
01.**.--1
**.0**00.
*.*....10
.**10-0..

Generation = 10, Population = 6.
--....-0-
...0..--.
.*.....--
.*.--10..

Generation = 12, Population = 8.
--....-0-
...-..--.
.....**1-
...1***..

Generation = 14, Population = 8.
--....*--
...-..1-*
......***
.......**

*** Life<Cell> 6x11 ***

Generation = 0, Population = 9.
-----0-0---
-0--0-0----
0------0---
---------0-
-0---------
-----------

Generation = 1, Population = 19.
-0----0-0--
--00-0-0---
----0---00-
00-----00-0
0-0------0-
-0---------

Generation = 2, Population = 23.
0--0---0-0-
--110-0-00-
000----0-1-
-1--0-01---
1--0---0---
---------0-

Generation = 3, Population = 32.
-0-1----010
---*1---110
11----010*0
0*----1*00-
--0----100-
0--0---00-0

Generation = 4, Population = 24.
0--*---0-*-
0-1**00-*-1
--0000-*-.-
-.---0-.-1-
-------*---
-0--0-0--0-

Generation = 5, Population = 35.
10-*-0--0*-
1--..11-*1-
11-1110*-*0
-.00-11.0-0
-0--00-.0--
0-00----0-0

Generation = 6, Population = 28.
-1-.-1-0-*0
-0-*.*-0.*-
-*0----.-.-
0.1--*-.111
--001--.-0-
-011-0-01--

Generation = 7, Population = 33.
1*0.0*-1-*1
1-1.*.-1.*-
-.-----.0.0
-.---.1.***
1-11*0-*01-
01*-0--1*--

Generation = 8, Population = 33.
-.-.-*-*-**
*0*.**1*..1
1.0-1-0.1.1
0.100*-...*
*0--*10.---
--*11-0-.--

Generation = 9, Population = 28.
1*0.-*0*-**
*-*.*.*...-
-.-1--1.-.-
-.---.1*.*.
*111.*-.--0
0-*--011.--

Generation = 10, Population = 28.
-.-*-*1*-..
*0*.*.....1
1.---1-.-.-
0*1--*-*...
*-****0.---
11*-1--*.-0

Generation = 11, Population = 22.
1*-*0*-.0..
*-***.....-
-.---*1.-.1
1.---.1....
.-....1*--0
--*1*--..0-

Generation = 12, Population = 21.
-*0.1*1.-..
*0*...*...1
-*01-*-.-.-
-.---.-....
.-.*.*-*0--
-1.-.01..--

Generation = 13, Population = 21.
-.-***-.-..
*-....*...-
-.1*-.-.-.1
-.1--.-....
.1..**1*11-
1-.1*-**.--

Generation = 14, Population = 30.
1.0.**-.-..
.0*..*....1
1*-*1.1.-.-
-**-0*1***.
.-*.*.*.-*0
--.**0...0-

Generation = 15, Population = 22.
-.1***1.-..
.-....*...-
*.-.-.*.1*1
-..01.-.***
.-*.....-.1
--.**1...1-

*** Life<Cell> 9x3 ***

Generation = 0, Population = 7.
-0-
---
00-
---
-0-
--0
---
--0
-0-

Generation = 2, Population = 9.
1--
---
*-1
--0
10-
0--
---
0--
-0-

Generation = 4, Population = 8.
1--
--1
.1*
--*
---
---
0--
--0
-0-

Generation = 6, Population = 13.
-1-
--.
..*
--*
111
---
011
1-0
10-

Generation = 8, Population = 8.
-1-
--.
.*.
1-.
.11
1--
--1
---
1--

Generation = 10, Population = 7.
---
0-.
...
--*
*.*
--0
-*-
*--
---

Generation = 12, Population = 11.
---
--.
**.
*1.
*.*
-0*
-*-
.0-
-1-

Generation = 14, Population = 10.
11-
--.
*.*
*-*
..*
--*
-.1
.-*
-.-

*** Life<Cell> 7x4 ***

Generation = 0, Population = 11.
--0-
---0
-0--
0---
00--
00-0
-00-

Generation = 1, Population = 12.
-0--
-0--
--00
10--
1-00
-10-
--1-

Generation = 2, Population = 18.
010-
01-0
0011
-10-
*--1
-*1-
--*0

Generation = 3, Population = 15.
-*1-
1*-1
--*-
1--0
*00-
-*-0
--*1

Generation = 4, Population = 13.
-**-
*.--
--*1
*-0-
*111
-.-1
--*-

Generation = 5, Population = 15.
-*.0
..-1
-0**
*1-0
*-*-
0.1*
-0.-

Generation = 6, Population = 14.
0.*1
.*--
--.*
*--1
*1.1
1.-*
--*1

Generation = 7, Population = 16.
-***
.*--
00*.
*-0-
**.-
*.-*
00*-

Generation = 8, Population = 13.
0**.
..01
-1*.
.-11
*.*1
..-.
--*-

Generation = 9, Population = 16.
1***
*.1*
0*..
.-*-
.**-
.*-*
-0.1

Generation = 10, Population = 15.
-..*
..-*
-..*
*1*1
.*.-
**1*
01.*

Generation = 11, Population = 9.
-...
..1*
0*.*
**.-
...-
..-*
--.*

Generation = 12, Population = 10.
-...
.***
-..*
***1
...1
..1.
--..

Generation = 13, Population = 7.
-.*.
..**
0...
.*.*
...*
..-.
--..

Generation = 14, Population = 9.
-.**
.***
-*.*
..*.
..*.
..-.
--..

Generation = 15, Population = 10.
-*.*
.*..
0*.*
.***
....
..1.
--..

*** Life<Cell> 11x5 ***

Generation = 0, Population = 10.
---0-
---0-
----0
---0-
-----
--0--
---0-
-----
--00-
0----
0----

Generation = 2, Population = 27.
-0-*1
-0-*-
--010
-010-
---10
0--00
-000-
0-1--
-1-*1
*-1--
---0-

Generation = 4, Population = 17.
--0**
--1.-
0-0--
--.*-
--0.-
---*0
1--00
--.1-
---..
*---1
----1

Generation = 6, Population = 25.
-*-..
1--*-
--*--
-1*.-
0--.1
-00*0
1*--0
1-.*0
1--**
*---*
--0-*

Generation = 8, Population = 15.
-.-..
1--*-
-0*--
-...-
-1-.*
---**
1.--0
--*.-
1-*..
.1--.
*---.

Generation = 10, Population = 16.
-.-..
111.-
0-*1-
-...1
1-1..
---..
1.*--
11..-
--**.
.-1-.
.---.

Generation = 12, Population = 25.
1*1..
--1*0
*-.*1
0.**-
--1..
0--..
..**1
1*.*1
--.*.
.*.-.
.-10.

Generation = 14, Population = 18.
..1..
1--.-
.-..-
-..*-
--.*.
-10*.
*.*.-
*.**1
*-...
..*-*
.0.*.

*** Life<Cell> 5x8 ***

Generation = 0, Population = 9.
----0--0
00------
--------
-00--00-
------0-

Generation = 1, Population = 25.
00-0-00-
110-0--0
0-0--00-
011001-0
-00---10

Generation = 2, Population = 16.
--0-011-
**-0-00-
----0-10
-*-----1
----0-*-

Generation = 3, Population = 16.
0--01*-0
.*0---1-
0----0--
0.1---0*
-0-0--.-

Generation = 4, Population = 17.
---1-*1-
**1-00--
1---0-10
1.----1.
--0-0-.0

Generation = 5, Population = 25.
00--1**0
***0--10
--0010-1
**1--1*.
00---0.-

Generation = 6, Population = 15.
----**.-
*..-00-1
-011---*
*.---*..
----01*-

Generation = 7, Population = 23.
0--1***0
.**----*
11-*--1.
.*10-*..
0--01**0

Generation = 8, Population = 19.
---****-
...0001*
**-*1--.
..-10..*
-----**1

Generation = 9, Population = 14.
--0*...-
...1-1**
..-.*-1*
..1--..*
---0-**-

Generation = 10, Population = 18.
-01**.*0
..**0*.*
..1**0-.
..--0..*
-----.*-

Generation = 11, Population = 10.
01*...*-
....-..*
..-..-1.
..1-1.*.
----1..-

Generation = 12, Population = 13.
1-.....-
.*..-.**
..1..0**
..--*...
--00**.-

Generation = 13, Population = 10.
--.....0
.*..-*.*
..-..1.*
..--....
-01-**.-

Generation = 14, Population = 13.
-1....*1
....0..*
..-..*..
..1-***.
01*-...-

Generation = 15, Population = 14.
1-....*-
....-*.*
..1*....
..*-***.
1-*0.*.-

*** Life<Cell> 11x10 ***

Generation = 0, Population = 10.
----------
-0--------
----------
--0-0-0---
------0---
0----0----
-0--------
----------
----------
--0-------
---------0

Generation = 2, Population = 28.
----------
--100-0---
------1---
-10--0*-0-
-0--1---0-
0--01-00--
---0--0---
0-0--0----
-0-------0
0---0-----
-------0--

Generation = 4, Population = 28.
------1---
0-.-------
-1----1---
--*--**0*-
--0-*-1---
----1----0
-0---0---0
--0-1-0---
------0--0
--0--10---
-0---0-0--

Generation = 6, Population = 42.
-0--0---0-
0-.--0100-
--00-0.---
--*1-.*-.1
0-*-.-*--1
--1-.01-1*
--0-1-----
0---11--00
----1---1-
0-011-000-
-0----1---

Generation = 8, Population = 35.
-0--00--*-
0-.-10100-
---0-*.--1
--*11..1.*
-1*-.0.---
----.*1-*.
----.---0-
----..-1--
-0--1-1---
01--11----
-0-1--.---

Generation = 10, Population = 43.
-0110--0.1
0-*-----0-
-10*-*.--.
-1.*.**1..
1..-.-.1**
---0*..-..
--1-.---**
01-0..1-01
-*1-*-1---
*.---*0---
-*--0*.---

Generation = 12, Population = 53.
0**1-1*-.1
-0.-*1-0--
--*.0*.11.
0*.*.*.1*.
1**0.**-..
10-*.*.*.*
-01-*0-1*.
-10-...1--
-.*-.-1--1
..---.-1-0
0*--***---

Generation = 14, Population = 52.
*****1*-.1
0-.0***---
1**.-..*-.
-.*...*1*.
...-..***.
-*1*...**.
-*1-*-1*..
---1.*.*0*
-..-.11--*
*.*--.1---
-.-****001
