*** Life<Cell> 10x10 ***

Generation = 0, Population = 4.
0---------
--0-------
----------
----------
----0-----
----------
----------
----------
----------
---------0

Generation = 1, Population = 12.
-00-------
00-0------
--0-------
----0-----
---0-0----
----0-----
----------
----------
---------0
--------0-

*** Life<Cell> 3x10 ***

Generation = 0, Population = 6.
---------0
----0--0--
-000------

Generation = 1, Population = 13.
----0--00-
-00--00-00
01-1---0--

Generation = 2, Population = 13.
-000---1--
--1--11--1
1-0-00---0

Generation = 3, Population = 16.
011100--00
0-----*-0*
--1-1---01

Generation = 4, Population = 10.
-----1-1--
1--0--.-1.
11---000--

Generation = 5, Population = 13.
0--10-----
*-1-0-.0-.
-*1111-1--

Generation = 6, Population = 17.
11-*-1-1--
*0*---*11.
-**-**-*0-

Generation = 7, Population = 9.
--1.--0*--
.-.-01.--.
-.*-.*0.-1

Generation = 8, Population = 12.
-1-.0-1.0-
.-.01-.1-.
-..1**1.0-

Generation = 9, Population = 14.
1-1*1--*-0
.0*-*-.-1.
-..-.***-1

Generation = 10, Population = 14.
-1-.-11.0-
.1*0*-.1-*
-..-.***0-

Generation = 11, Population = 18.
1*-*-***--
.-*-*1.*-*
-.*1****1-

*** Life<Cell> 1x1 ***

Generation = 0, Population = 1.
0

Generation = 1, Population = 0.
-

*** Life<Cell> 4x4 ***

Generation = 0, Population = 16.
0000
0000
0000
0000

Generation = 4, Population = 8.
-**-
*--*
*--*
-**-

Generation = 8, Population = 8.
-**-
*--*
*--*
-**-

Generation = 12, Population = 8.
-**-
*--*
*--*
-**-

Generation = 16, Population = 8.
-**-
*--*
*--*
-**-

Generation = 20, Population = 8.
-**-
*--*
*--*
-**-

*** Life<Cell> 12x1 ***

Generation = 0, Population = 3.
-
-
0
0
-
-
-
-
-
-
-
0

Generation = 1, Population = 5.
-
0
1
1
0
-
-
-
-
-
0
-

Generation = 2, Population = 6.
0
1
-
-
1
0
-
-
-
0
-
0

*** Life<Cell> 12x12 ***

Generation = 0, Population = 8.
------------
-00---------
-00---------
------------
-----0------
------------
------------
------------
------------
------------
----------0-
00----------

Generation = 3, Population = 45.
-**-0-------
*-----------
*---110-----
---000-0----
0-110-0-0---
-000-0-0----
----0-0-----
-----0----0-
00-------0-0
110-----0-0-
0-00---0-0--
1.-10---0---

Generation = 6, Population = 51.
-..---00----
.-0*-*-10---
.----.1100--
01----1-----
--11-000--10
-.-10-------
0*-100--01--
---0--------
-000--10--0-
*.-001------
---010--0---
*.*-**00----

*** Life<Cell> 2x2 ***

Generation = 0, Population = 2.
0-
-0

Generation = 1, Population = 0.
--
--

Generation = 2, Population = 0.
--
--

*** Life<Cell> 55x45 ***

Generation = 0, Population = 1.
0--------------------------------------------
---------------------------------------------
---------------------------------------------
---------------------------------------------
---------------------------------------------
---------------------------------------------
---------------------------------------------
---------------------------------------------
---------------------------------------------
---------------------------------------------
---------------------------------------------
---------------------------------------------
---------------------------------------------
---------------------------------------------
---------------------------------------------
---------------------------------------------
---------------------------------------------
---------------------------------------------
---------------------------------------------
---------------------------------------------
---------------------------------------------
---------------------------------------------
---------------------------------------------
---------------------------------------------
---------------------------------------------
---------------------------------------------
---------------------------------------------
---------------------------------------------
---------------------------------------------
---------------------------------------------
---------------------------------------------
---------------------------------------------
---------------------------------------------
---------------------------------------------
---------------------------------------------
---------------------------------------------
---------------------------------------------
---------------------------------------------
---------------------------------------------
---------------------------------------------
---------------------------------------------
---------------------------------------------
---------------------------------------------
---------------------------------------------
---------------------------------------------
---------------------------------------------
---------------------------------------------
---------------------------------------------
---------------------------------------------
---------------------------------------------
---------------------------------------------
---------------------------------------------
---------------------------------------------
---------------------------------------------
---------------------------------------------

Generation = 1, Population = 2.
-0-------------------------------------------
0--------------------------------------------
---------------------------------------------
---------------------------------------------
---------------------------------------------
---------------------------------------------
---------------------------------------------
---------------------------------------------
---------------------------------------------
---------------------------------------------
---------------------------------------------
---------------------------------------------
---------------------------------------------
---------------------------------------------
---------------------------------------------
---------------------------------------------
---------------------------------------------
---------------------------------------------
---------------------------------------------
---------------------------------------------
---------------------------------------------
---------------------------------------------
---------------------------------------------
---------------------------------------------
---------------------------------------------
---------------------------------------------
---------------------------------------------
---------------------------------------------
---------------------------------------------
---------------------------------------------
---------------------------------------------
---------------------------------------------
---------------------------------------------
---------------------------------------------
---------------------------------------------
---------------------------------------------
---------------------------------------------
---------------------------------------------
---------------------------------------------
---------------------------------------------
---------------------------------------------
---------------------------------------------
---------------------------------------------
---------------------------------------------
---------------------------------------------
---------------------------------------------
---------------------------------------------
---------------------------------------------
---------------------------------------------
---------------------------------------------
---------------------------------------------
---------------------------------------------
---------------------------------------------
---------------------------------------------
---------------------------------------------

*** Life<Cell> 7x4 ***

Generation = 0, Population = 4.
----
----
---0
---0
----
--0-
-0--

Generation = 3, Population = 16.
--01
-00-
010*
01-*
-10-
-00-
---1

*** Life<Cell> 7x8 ***

Generation = 0, Population = 6.
--------
--0----0
-0------
--------
-----0--
------0-
-------0

Generation = 3, Population = 18.
--0-00-0
----1---
0---01--
---0--11
0-0---00
-0---0--
----0---

Generation = 6, Population = 17.
-----*--
-0**10--
----1.0-
0-00----
-----0-1
-----0-0
-0---0--

Generation = 9, Population = 21.
-0--1**-
--.**--*
--0*..-*
-01*---*
--0-*11*
-------1
-----1--

Generation = 12, Population = 26.
0--1*.*-
01..*1-.
1--...*.
**-.-0*.
1011*1-.
-1*----*
---1*1--

*** Life<Cell> 6x6 ***

Generation = 0, Population = 5.
0-----
------
---0--
--0-0-
-----0
------

Generation = 1, Population = 7.
-0----
0--0--
------
-0-0--
--0---
-----0

Generation = 2, Population = 12.
--00--
--0-0-
00----
0-0-0-
-----0
--0-0-

Generation = 3, Population = 13.
-0-1--
0-10-0
-10---
10----
0---0-
-0----

Generation = 4, Population = 13.
--0*00
------
0----0
----0-
10-0-0
--0-0-
