*** Life<ConwayCell> 4x4 ***

Generation = 0, Population = 4.
....
.**.
.**.
....

Generation = 1, Population = 4.
....
.**.
.**.
....

*** Life<ConwayCell> 5x5 ***

Generation = 0, Population = 3.
.....
.....
.***.
.....
.....

Generation = 1, Population = 3.
.....
..*..
..*..
..*..
.....

Generation = 2, Population = 3.
.....
.....
.***.
.....
.....

*** Life<ConwayCell> 5x5 ***

Generation = 0, Population = 4.
.....
..*..
.*.*.
..*..
.....

Generation = 1, Population = 4.
.....
..*..
.*.*.
..*..
.....

*** Life<ConwayCell> 5x6 ***

Generation = 0, Population = 6.
......
..**..
.*..*.
..**..
......

Generation = 1, Population = 6.
......
..**..
.*..*.
..**..
......

*** Life<ConwayCell> 6x6 ***

Generation = 0, Population = 5.
......
..*...
...*..
.***..
......
......

Generation = 1, Population = 5.
......
......
.*.*..
..**..
..*...
......

Generation = 2, Population = 5.
......
......
...*..
.*.*..
..**..
......

Generation = 3, Population = 5.
......
......
..*...
...**.
..**..
......

Generation = 4, Population = 5.
......
......
...*..
....*.
..***.
......

*** Life<ConwayCell> 13x9 ***

Generation = 0, Population = 13.
.....*.*.
.......**
.........
.......*.
..*......
.........
.........
.........
*........
.....***.
...**....
.........
*........

Generation = 4, Population = 6.
.........
.........
.........
.........
.........
.........
.........
.........
.........
.....***.
......**.
.....*...
.........

Generation = 8, Population = 0.
.........
.........
.........
.........
.........
.........
.........
.........
.........
.........
.........
.........
.........

Generation = 12, Population = 0.
.........
.........
.........
.........
.........
.........
.........
.........
.........
.........
.........
.........
.........

*** Life<ConwayCell> 6x4 ***

Generation = 0, Population = 16.
****
.***
..**
..**
*.*.
***.

Generation = 5, Population = 0.
....
....
....
....
....
....

Generation = 10, Population = 0.
....
....
....
....
....
....

*** Life<ConwayCell> 10x7 ***

Generation = 0, Population = 7.
.......
*.**...
.......
.......
.......
.....*.
....*..
.......
.....*.
....*..

Generation = 5, Population = 0.
.......
.......
.......
.......
.......
.......
.......
.......
.......
.......

Generation = 10, Population = 0.
.......
.......
.......
.......
.......
.......
.......
.......
.......
.......

*** Life<ConwayCell> 4x5 ***

Generation = 0, Population = 7.
.*.*.
*....
.****
.....

Generation = 1, Population = 7.
.....
*...*
.***.
..**.

Generation = 2, Population = 7.
.....
.***.
.*..*
.*.*.

Generation = 3, Population = 8.
..*..
.***.
**..*
..*..

Generation = 4, Population = 7.
.***.
*..*.
*....
.*...

Generation = 5, Population = 7.
.***.
*..*.
**...
.....

Generation = 6, Population = 7.
.***.
*..*.
**...
.....

Generation = 7, Population = 7.
.***.
*..*.
**...
.....

*** Life<ConwayCell> 15x8 ***

Generation = 0, Population = 15.
.***....
........
........
..*.....
....*...
.......*
..**....
.....*..
...*....
......*.
..*...*.
.....*..
.....*..
........
........

Generation = 2, Population = 8.
........
........
........
........
........
........
..*.*...
...*....
...*....
........
.....**.
.....**.
........
........
........

Generation = 4, Population = 11.
........
........
........
........
........
........
..***...
..***...
...*....
........
.....**.
.....**.
........
........
........

Generation = 6, Population = 12.
........
........
........
........
........
...*....
...*....
..*.*...
...*....
...***..
.....**.
.....**.
........
........
........

Generation = 8, Population = 14.
........
........
........
........
........
...*....
..*.*...
.**.**..
..*..**.
....***.
....*...
........
........
........
........

*** Life<ConwayCell> 5x5 ***

Generation = 0, Population = 12.
**...
..***
*....
*.*.*
*..**

Generation = 9, Population = 0.
.....
.....
.....
.....
.....

*** Life<ConwayCell> 1x1 ***

Generation = 0, Population = 1.
*

Generation = 3, Population = 0.
.

*** Life<ConwayCell> 3x7 ***

Generation = 0, Population = 7.
*...*..
....*.*
.*..*.*

Generation = 5, Population = 0.
.......
.......
.......

*** Life<ConwayCell> 5x2 ***

Generation = 0, Population = 5.
**
.*
..
**
..

Generation = 2, Population = 4.
**
..
**
..
..

Generation = 4, Population = 0.
..
..
..
..
..

Generation = 6, Population = 0.
..
..
..
..
..

Generation = 8, Population = 0.
..
..
..
..
..

Generation = 10, Population = 0.
..
..
..
..
..

Generation = 12, Population = 0.
..
..
..
..
..
